mips_pipeline_tb.vcd
$date
	Mon Apr 27 19:40:53 2026
$end
$version
	Icarus Verilog
$end
$timescale
	1ps
$end
$scope module mips_pipeline_tb $end
$var wire 32 ! R0 [31:0] $end
$var wire 32 " R1 [31:0] $end
$var wire 32 # R2 [31:0] $end
$var wire 32 $ R3 [31:0] $end
$var reg 1 % clk $end
$var integer 32 & cycle [31:0] $end
$scope module uut $end
$var wire 1 % clk $end
$var wire 1 ' rst $end
$var wire 5 ( wb_write_reg [4:0] $end
$var wire 32 ) wb_write_data [31:0] $end
$var wire 1 * wb_reg_write $end
$var wire 1 + mem_pcsrc $end
$var wire 32 , if_id_npc [31:0] $end
$var wire 32 - if_id_instr [31:0] $end
$var wire 2 . id_ex_wb [1:0] $end
$var wire 32 / id_ex_sign_ext [31:0] $end
$var wire 32 0 id_ex_readdat2 [31:0] $end
$var wire 32 1 id_ex_readdat1 [31:0] $end
$var wire 32 2 id_ex_npc [31:0] $end
$var wire 3 3 id_ex_mem [2:0] $end
$var wire 5 4 id_ex_instr_2016 [4:0] $end
$var wire 5 5 id_ex_instr_1511 [4:0] $end
$var wire 4 6 id_ex_execute [3:0] $end
$var wire 1 7 ex_mem_zero $end
$var wire 5 8 ex_mem_write_reg [4:0] $end
$var wire 2 9 ex_mem_wb [1:0] $end
$var wire 32 : ex_mem_rdata2 [31:0] $end
$var wire 32 ; ex_mem_npc [31:0] $end
$var wire 1 < ex_mem_memwrite $end
$var wire 1 = ex_mem_memread $end
$var wire 1 > ex_mem_branch $end
$var wire 32 ? ex_mem_alu_result [31:0] $end
$scope module EX_stage $end
$var wire 2 @ aluop [1:0] $end
$var wire 1 A alusrc $end
$var wire 1 B regdst $end
$var wire 1 7 zero $end
$var wire 2 C wb_ctlout [1:0] $end
$var wire 2 D wb_ctl [1:0] $end
$var wire 32 E s_extendout [31:0] $end
$var wire 32 F rdata2out [31:0] $end
$var wire 32 G rdata2 [31:0] $end
$var wire 32 H rdata1 [31:0] $end
$var wire 32 I npcout [31:0] $end
$var wire 5 J muxout [4:0] $end
$var wire 1 < memwrite $end
$var wire 1 = memread $end
$var wire 3 K m_ctl [2:0] $end
$var wire 5 L instrout_2016 [4:0] $end
$var wire 5 M instrout_1511 [4:0] $end
$var wire 5 N five_bit_muxout [4:0] $end
$var wire 3 O control [2:0] $end
$var wire 1 > branch $end
$var wire 32 P b [31:0] $end
$var wire 1 Q aluzero $end
$var wire 32 R aluout [31:0] $end
$var wire 32 S alu_result [31:0] $end
$var wire 32 T adder_out [31:0] $end
$var wire 32 U EX_MEM_NPC [31:0] $end
$scope module adder3 $end
$var wire 32 V add_out [31:0] $end
$var wire 32 W add_in2 [31:0] $end
$var wire 32 X add_in1 [31:0] $end
$upscope $end
$scope module alu3 $end
$var wire 1 Y sign_mismatch $end
$var wire 1 Q zero $end
$var wire 3 Z control [2:0] $end
$var wire 32 [ b [31:0] $end
$var wire 32 \ a [31:0] $end
$var parameter 3 ] ALUadd $end
$var parameter 3 ^ ALUand $end
$var parameter 3 _ ALUor $end
$var parameter 3 ` ALUslt $end
$var parameter 3 a ALUsub $end
$var reg 32 b result [31:0] $end
$upscope $end
$scope module alu_control3 $end
$var wire 2 c aluop [1:0] $end
$var wire 6 d funct [5:0] $end
$var parameter 3 e ALUadd $end
$var parameter 3 f ALUand $end
$var parameter 3 g ALUor $end
$var parameter 3 h ALUslt $end
$var parameter 3 i ALUsub $end
$var parameter 3 j ALUx $end
$var parameter 6 k FUNCTadd $end
$var parameter 6 l FUNCTand $end
$var parameter 6 m FUNCTor $end
$var parameter 6 n FUNCTslt $end
$var parameter 6 o FUNCTsub $end
$var parameter 2 p Itype $end
$var parameter 2 q Rtype $end
$var parameter 2 r lwsw $end
$var parameter 2 s unknown $end
$var parameter 6 t xis $end
$var reg 3 u select [2:0] $end
$upscope $end
$scope module bottom_mux3 $end
$var wire 1 B sel $end
$var wire 5 v y [4:0] $end
$var wire 5 w b [4:0] $end
$var wire 5 x a [4:0] $end
$upscope $end
$scope module ex_mem3 $end
$var wire 32 y adder_out [31:0] $end
$var wire 32 z aluout [31:0] $end
$var wire 1 Q aluzero $end
$var wire 5 { muxout [4:0] $end
$var wire 32 | readdat2 [31:0] $end
$var wire 2 } ctlwb_out [1:0] $end
$var wire 3 ~ ctlm_out [2:0] $end
$var reg 32 !" add_result [31:0] $end
$var reg 32 "" alu_result [31:0] $end
$var reg 1 > branch $end
$var reg 5 #" five_bit_muxout [4:0] $end
$var reg 1 = memread $end
$var reg 1 < memwrite $end
$var reg 32 $" rdata2out [31:0] $end
$var reg 2 %" wb_ctlout [1:0] $end
$var reg 1 7 zero $end
$upscope $end
$scope module top_mux3 $end
$var wire 1 A alusrc $end
$var wire 32 &" y [31:0] $end
$var wire 32 '" b [31:0] $end
$var wire 32 (" a [31:0] $end
$upscope $end
$upscope $end
$scope module ID_stage $end
$var wire 1 % clk $end
$var wire 1 ' rst $end
$var wire 5 )" wb_write_reg_location [4:0] $end
$var wire 1 * wb_reg_write $end
$var wire 2 *" wb_internal [1:0] $end
$var wire 32 +" sign_ext_internal [31:0] $end
$var wire 32 ," readdat2_internal [31:0] $end
$var wire 32 -" readdat1_internal [31:0] $end
$var wire 32 ." mem_wb_write_data [31:0] $end
$var wire 3 /" mem_internal [2:0] $end
$var wire 32 0" if_id_npc [31:0] $end
$var wire 32 1" if_id_instr [31:0] $end
$var wire 2 2" id_ex_wb [1:0] $end
$var wire 32 3" id_ex_sign_ext [31:0] $end
$var wire 32 4" id_ex_readdat2 [31:0] $end
$var wire 32 5" id_ex_readdat1 [31:0] $end
$var wire 32 6" id_ex_npc [31:0] $end
$var wire 3 7" id_ex_mem [2:0] $end
$var wire 5 8" id_ex_instr_bits_20_16 [4:0] $end
$var wire 5 9" id_ex_instr_bits_15_11 [4:0] $end
$var wire 4 :" id_ex_execute [3:0] $end
$var wire 4 ;" ex_internal [3:0] $end
$scope module c0 $end
$var wire 1 % clk $end
$var wire 6 <" opcode [5:0] $end
$var wire 1 ' rst $end
$var parameter 6 =" BEQ $end
$var parameter 6 >" LW $end
$var parameter 6 ?" NOP $end
$var parameter 6 @" RTYPE $end
$var parameter 6 A" SW $end
$var reg 4 B" ex [3:0] $end
$var reg 3 C" mem [2:0] $end
$var reg 2 D" wb [1:0] $end
$upscope $end
$scope module iEL0 $end
$var wire 1 % clk $end
$var wire 4 E" ctl_ex [3:0] $end
$var wire 3 F" ctl_mem [2:0] $end
$var wire 2 G" ctl_wb [1:0] $end
$var wire 5 H" instr_bits_15_11 [4:0] $end
$var wire 5 I" instr_bits_20_16 [4:0] $end
$var wire 1 ' rst $end
$var wire 32 J" sign_ext [31:0] $end
$var wire 32 K" readdat2 [31:0] $end
$var wire 32 L" readdat1 [31:0] $end
$var wire 32 M" npc [31:0] $end
$var reg 4 N" ctl_out [3:0] $end
$var reg 5 O" instr_bits_15_11_out [4:0] $end
$var reg 5 P" instr_bits_20_16_out [4:0] $end
$var reg 3 Q" mem_out [2:0] $end
$var reg 32 R" npc_out [31:0] $end
$var reg 32 S" readdat1_out [31:0] $end
$var reg 32 T" readdat2_out [31:0] $end
$var reg 32 U" sign_ext_out [31:0] $end
$var reg 2 V" wb_out [1:0] $end
$upscope $end
$scope module rf0 $end
$var wire 1 % clk $end
$var wire 5 W" rs [4:0] $end
$var wire 1 ' rst $end
$var wire 5 X" rt [4:0] $end
$var wire 32 Y" writedata [31:0] $end
$var wire 1 * regwrite $end
$var wire 5 Z" rd [4:0] $end
$var wire 32 [" B_readdat2 [31:0] $end
$var wire 32 \" A_readdat1 [31:0] $end
$upscope $end
$scope module sE0 $end
$var wire 16 ]" immediate [15:0] $end
$var wire 32 ^" extended [31:0] $end
$upscope $end
$upscope $end
$scope module IF_stage $end
$var wire 1 % clk $end
$var wire 32 _" ex_mem_npc [31:0] $end
$var wire 1 ' rst $end
$var wire 32 `" pc_out [31:0] $end
$var wire 32 a" pc_mux [31:0] $end
$var wire 32 b" next_pc [31:0] $end
$var wire 32 c" instr_data [31:0] $end
$var wire 32 d" if_id_npc [31:0] $end
$var wire 32 e" if_id_instr [31:0] $end
$var wire 1 + ex_mem_pc_src $end
$scope module ifIdLatch0 $end
$var wire 1 % clk $end
$var wire 1 ' rst $end
$var wire 32 f" pc_in [31:0] $end
$var wire 32 g" instr_in [31:0] $end
$var reg 32 h" instr_out [31:0] $end
$var reg 32 i" pc_out [31:0] $end
$upscope $end
$scope module in0 $end
$var wire 32 j" pc_out [31:0] $end
$var wire 32 k" pc_in [31:0] $end
$upscope $end
$scope module inMem0 $end
$var wire 32 l" data [31:0] $end
$var wire 32 m" addr [31:0] $end
$var integer 32 n" i [31:0] $end
$upscope $end
$scope module m0 $end
$var wire 32 o" a_true [31:0] $end
$var wire 32 p" b_false [31:0] $end
$var wire 32 q" y [31:0] $end
$var wire 1 + sel $end
$upscope $end
$scope module pc0 $end
$var wire 1 % clk $end
$var wire 32 r" pc_in [31:0] $end
$var wire 1 ' rst $end
$var reg 32 s" pc_out [31:0] $end
$upscope $end
$upscope $end
$scope module MEM_WB_stage $end
$var wire 32 t" alu_result [31:0] $end
$var wire 1 > branch $end
$var wire 1 % clk $end
$var wire 5 u" five_bit_muxout [4:0] $end
$var wire 1 = memread $end
$var wire 1 < memwrite $end
$var wire 32 v" rdata2out [31:0] $end
$var wire 2 w" wb_ctlout [1:0] $end
$var wire 1 7 zero $end
$var wire 32 x" write_data_out [31:0] $end
$var wire 32 y" read_data_in [31:0] $end
$var wire 5 z" mem_write_reg [4:0] $end
$var wire 32 {" latched_read_data [31:0] $end
$var wire 1 |" latched_memtoreg $end
$var wire 32 }" latched_alu [31:0] $end
$var wire 1 * MEM_WB_regwrite $end
$var wire 1 + MEM_PCSrc $end
$scope module AND_4 $end
$var wire 1 + PCSrc $end
$var wire 1 > membranch $end
$var wire 1 7 zero $end
$upscope $end
$scope module data_memory4 $end
$var wire 32 ~" addr [31:0] $end
$var wire 1 % clk $end
$var wire 1 = memread $end
$var wire 1 < memwrite $end
$var wire 32 !# write_data [31:0] $end
$var reg 32 "# read_data [31:0] $end
$var integer 32 ## i [31:0] $end
$upscope $end
$scope module mem_wb4 $end
$var wire 32 $# alu_result_in [31:0] $end
$var wire 1 % clk $end
$var wire 2 %# control_wb_in [1:0] $end
$var wire 32 &# read_data_in [31:0] $end
$var wire 5 '# write_reg_in [4:0] $end
$var reg 32 (# mem_alu_result [31:0] $end
$var reg 5 )# mem_write_reg [4:0] $end
$var reg 1 |" memtoreg $end
$var reg 32 *# read_data [31:0] $end
$var reg 1 * regwrite $end
$upscope $end
$scope module wb_mux_i $end
$var wire 32 +# mem_alu_result [31:0] $end
$var wire 32 ,# read_data [31:0] $end
$var wire 1 |" sel $end
$var wire 32 -# writedata [31:0] $end
$upscope $end
$upscope $end
$upscope $end
$upscope $end
$enddefinitions $end
$comment Show the parameter values. $end
$dumpall
b101011 A"
b0 @"
b100000 ?"
b100011 >"
b100 ="
bx t
b11 s
b0 r
b10 q
b1 p
b100010 o
b101010 n
b100101 m
b100100 l
b100000 k
b11 j
b110 i
b111 h
b1 g
b0 f
b10 e
b110 a
b111 `
b1 _
b0 ^
b10 ]
$end
#0
$dumpvars
b0 -#
b0 ,#
b0 +#
b0 *#
b0 )#
b0 (#
b0 '#
b0 &#
b0 %#
b0 $#
b110 ##
b0 "#
b0 !#
b0 ~"
b0 }"
0|"
b0 {"
b0 z"
b0 y"
b0 x"
b0 w"
b0 v"
b0 u"
b0 t"
b0 s"
b100 r"
b100 q"
b100 p"
b0 o"
b100000000 n"
b0 m"
b10001100000000010000000000000001 l"
b0 k"
b100 j"
bx i"
bx h"
b10001100000000010000000000000001 g"
b100 f"
bx e"
bx d"
b10001100000000010000000000000001 c"
b100 b"
b100 a"
b0 `"
b0 _"
bx ^"
bx ]"
bx \"
bx ["
b0 Z"
b0 Y"
bx X"
bx W"
bx V"
bx U"
bx T"
bx S"
bx R"
bx Q"
bx P"
bx O"
bx N"
bx M"
bx L"
bx K"
bx J"
bx I"
bx H"
bx G"
bx F"
bx E"
bx D"
bx C"
bx B"
bx <"
bx ;"
bx :"
bx 9"
bx 8"
bx 7"
bx 6"
bx 5"
bx 4"
bx 3"
bx 2"
bx 1"
bx 0"
bx /"
b0 ."
bx -"
bx ,"
bx +"
bx *"
b0 )"
bx ("
bx '"
bx &"
b0 %"
b0 $"
b0 #"
b0 ""
b0 !"
bx ~
bx }
bx |
bx {
bx z
bx y
bx x
bx w
bx v
b0 u
bx d
bx c
bx b
bx \
bx [
b0 Z
xY
bx X
bx W
bx V
b0 U
bx T
b0 S
bx R
xQ
bx P
b0 O
b0 N
bx M
bx L
bx K
bx J
bx I
bx H
bx G
b0 F
bx E
bx D
b0 C
xB
xA
bx @
b0 ?
0>
0=
0<
b0 ;
b0 :
b0 9
b0 8
07
bx 6
bx 5
bx 4
bx 3
bx 2
bx 1
bx 0
bx /
bx .
bx -
bx ,
0+
0*
b0 )
b0 (
0'
b0 &
0%
b10001100000100100011010001010110 $
b100000000000000100010 #
b10000011001010100001100100001 "
b1000110000000010101010 !
$end
#1000
x+
bx 8
bx N
bx #"
bx u"
bx '#
bx :
bx F
bx $"
bx v"
bx !#
bx ?
bx S
bx ""
bx t"
bx ~"
bx $#
x7
bx ;
bx U
bx !"
bx _"
bx o"
x<
x=
x>
bx 9
bx C
bx %"
bx w"
bx %#
#5000
b1 ;"
b1 B"
b1 E"
b10 /"
b10 C"
b10 F"
b11 *"
b11 D"
b11 G"
b0 -"
b0 L"
b0 \"
b10001100000000100000000000000010 c"
b10001100000000100000000000000010 g"
b10001100000000100000000000000010 l"
b1000 a"
b1000 q"
b1000 r"
b0 H"
b1 I"
b100011 <"
b1 X"
b0 W"
b1 +"
b1 J"
b1 ^"
b1 ]"
bx )
bx ."
bx Y"
bx x"
bx -#
b1000 b"
b1000 f"
b1000 j"
b1000 p"
b100 `"
b100 k"
b100 m"
b100 s"
b10001100000000010000000000000001 -
b10001100000000010000000000000001 1"
b10001100000000010000000000000001 e"
b10001100000000010000000000000001 h"
b100 ,
b100 0"
b100 M"
b100 d"
b100 i"
bx (
bx )"
bx Z"
bx z"
bx )#
bx }"
bx (#
bx +#
x|"
x*
b1 &
1%
#10000
0%
#15000
b10 O
b10 Z
b10 u
0Y
0Q
b1 J
b1 v
b1 {
b1 P
b1 [
b1 &"
b1 d
b1 R
b1 b
b1 z
b0 @
b0 c
1A
0B
b10 I"
b10 X"
b10 +"
b10 J"
b10 ^"
b10 ]"
b10001100000000110000000000000011 c"
b10001100000000110000000000000011 g"
b10001100000000110000000000000011 l"
b1100 a"
b1100 q"
b1100 r"
b10 &
b0 5
b0 M
b0 x
b0 9"
b0 O"
b1 4
b1 L
b1 w
b1 8"
b1 P"
b101 T
b101 V
b101 y
b1 /
b1 E
b1 W
b1 ("
b1 3"
b1 U"
b0 1
b0 H
b0 \
b0 5"
b0 S"
b100 2
b100 I
b100 X
b100 6"
b100 R"
b1 6
b1 :"
b1 N"
b10 3
b10 K
b10 ~
b10 7"
b10 Q"
b11 .
b11 D
b11 }
b11 2"
b11 V"
b10001100000000100000000000000010 -
b10001100000000100000000000000010 1"
b10001100000000100000000000000010 e"
b10001100000000100000000000000010 h"
b1000 ,
b1000 0"
b1000 M"
b1000 d"
b1000 i"
b1100 b"
b1100 f"
b1100 j"
b1100 p"
b1000 `"
b1000 k"
b1000 m"
b1000 s"
1%
#16000
b1 y"
b1 "#
b1 &#
0+
b1 8
b1 N
b1 #"
b1 u"
b1 '#
b1 ?
b1 S
b1 ""
b1 t"
b1 ~"
b1 $#
07
b101 ;
b101 U
b101 !"
b101 _"
b101 o"
0<
1=
0>
b11 9
b11 C
b11 %"
b11 w"
b11 %#
#20000
0%
#25000
b10001100000100100011010001010110 ,"
b10001100000100100011010001010110 K"
b10001100000100100011010001010110 ["
b10 R
b10 b
b10 z
b10000000000000000000000000000000 c"
b10000000000000000000000000000000 g"
b10000000000000000000000000000000 l"
b10000 a"
b10000 q"
b10000 r"
b11 I"
b11 X"
b11 +"
b11 J"
b11 ^"
b11 ]"
b10 J
b10 v
b10 {
b10 P
b10 [
b10 &"
b10 d
b1 )
b1 ."
b1 Y"
b1 x"
b1 -#
b10000 b"
b10000 f"
b10000 j"
b10000 p"
b1100 `"
b1100 k"
b1100 m"
b1100 s"
b10001100000000110000000000000011 -
b10001100000000110000000000000011 1"
b10001100000000110000000000000011 e"
b10001100000000110000000000000011 h"
b1100 ,
b1100 0"
b1100 M"
b1100 d"
b1100 i"
b10 4
b10 L
b10 w
b10 8"
b10 P"
b10 /
b10 E
b10 W
b10 ("
b10 3"
b10 U"
b1010 T
b1010 V
b1010 y
b1000 2
b1000 I
b1000 X
b1000 6"
b1000 R"
b1 (
b1 )"
b1 Z"
b1 z"
b1 )#
b1 }"
b1 (#
b1 +#
b1 {"
b1 *#
b1 ,#
1|"
1*
b11 &
1%
#26000
b10 y"
b10 "#
b10 &#
b10 8
b10 N
b10 #"
b10 u"
b10 '#
b10 ?
b10 S
b10 ""
b10 t"
b10 ~"
b10 $#
b1010 ;
b1010 U
b1010 !"
b1010 _"
b1010 o"
#30000
0%
#35000
b11 R
b11 b
b11 z
b0 ;"
b0 B"
b0 E"
b0 /"
b0 C"
b0 F"
b0 *"
b0 D"
b0 G"
b0 ,"
b0 K"
b0 ["
b10 )
b10 ."
b10 Y"
b10 x"
b10 -#
b11 J
b11 v
b11 {
b11 P
b11 [
b11 &"
b11 d
b0 I"
b100000 <"
b0 X"
b0 +"
b0 J"
b0 ^"
b0 ]"
b10100 a"
b10100 q"
b10100 r"
b100 &
b10 (
b10 )"
b10 Z"
b10 z"
b10 )#
b10 }"
b10 (#
b10 +#
b10 {"
b10 *#
b10 ,#
b11 4
b11 L
b11 w
b11 8"
b11 P"
b11 /
b11 E
b11 W
b11 ("
b11 3"
b11 U"
b10001100000100100011010001010110 0
b10001100000100100011010001010110 G
b10001100000100100011010001010110 |
b10001100000100100011010001010110 '"
b10001100000100100011010001010110 4"
b10001100000100100011010001010110 T"
b1111 T
b1111 V
b1111 y
b1100 2
b1100 I
b1100 X
b1100 6"
b1100 R"
b1 "
b10000000000000000000000000000000 -
b10000000000000000000000000000000 1"
b10000000000000000000000000000000 e"
b10000000000000000000000000000000 h"
b10000 ,
b10000 0"
b10000 M"
b10000 d"
b10000 i"
b10100 b"
b10100 f"
b10100 j"
b10100 p"
b10000 `"
b10000 k"
b10000 m"
b10000 s"
1%
#36000
b11 y"
b11 "#
b11 &#
b11 8
b11 N
b11 #"
b11 u"
b11 '#
b10001100000100100011010001010110 :
b10001100000100100011010001010110 F
b10001100000100100011010001010110 $"
b10001100000100100011010001010110 v"
b10001100000100100011010001010110 !#
b11 ?
b11 S
b11 ""
b11 t"
b11 ~"
b11 $#
b1111 ;
b1111 U
b1111 !"
b1111 _"
b1111 o"
#40000
0%
#45000
1Q
b0 R
b0 b
b0 z
b1000100000100000100000 c"
b1000100000100000100000 g"
b1000100000100000100000 l"
b11000 a"
b11000 q"
b11000 r"
b0 J
b0 v
b0 {
b0 P
b0 [
b0 &"
b0 d
0A
b11 )
b11 ."
b11 Y"
b11 x"
b11 -#
b11000 b"
b11000 f"
b11000 j"
b11000 p"
b10100 `"
b10100 k"
b10100 m"
b10100 s"
b10100 ,
b10100 0"
b10100 M"
b10100 d"
b10100 i"
b10 #
b0 4
b0 L
b0 w
b0 8"
b0 P"
b0 /
b0 E
b0 W
b0 ("
b0 3"
b0 U"
b0 0
b0 G
b0 |
b0 '"
b0 4"
b0 T"
b10000 T
b10000 V
b10000 y
b10000 2
b10000 I
b10000 X
b10000 6"
b10000 R"
b0 6
b0 :"
b0 N"
b0 3
b0 K
b0 ~
b0 7"
b0 Q"
b0 .
b0 D
b0 }
b0 2"
b0 V"
b11 (
b11 )"
b11 Z"
b11 z"
b11 )#
b11 }"
b11 (#
b11 +#
b11 {"
b11 *#
b11 ,#
b101 &
1%
#46000
b0 y"
b0 "#
b0 &#
b0 8
b0 N
b0 #"
b0 u"
b0 '#
b0 :
b0 F
b0 $"
b0 v"
b0 !#
b0 ?
b0 S
b0 ""
b0 t"
b0 ~"
b0 $#
17
b10000 ;
b10000 U
b10000 !"
b10000 _"
b10000 o"
0=
b0 9
b0 C
b0 %"
b0 w"
b0 %#
#50000
0%
#55000
b1100 ;"
b1100 B"
b1100 E"
b10 *"
b10 D"
b10 G"
b10 ,"
b10 K"
b10 ["
b1 -"
b1 L"
b1 \"
b0 )
b0 ."
b0 Y"
b0 x"
b0 -#
b1 H"
b10 I"
b0 <"
b10 X"
b1 W"
b100000100000 +"
b100000100000 J"
b100000100000 ^"
b100000100000 ]"
b10000000000000000000000000000000 c"
b10000000000000000000000000000000 g"
b10000000000000000000000000000000 l"
b11100 a"
b11100 q"
b11100 r"
b110 &
b0 (
b0 )"
b0 Z"
b0 z"
b0 )#
b0 }"
b0 (#
b0 +#
b0 {"
b0 *#
b0 ,#
0|"
0*
b10100 T
b10100 V
b10100 y
b10100 2
b10100 I
b10100 X
b10100 6"
b10100 R"
b11 $
b1000100000100000100000 -
b1000100000100000100000 1"
b1000100000100000100000 e"
b1000100000100000100000 h"
b11000 ,
b11000 0"
b11000 M"
b11000 d"
b11000 i"
b11100 b"
b11100 f"
b11100 j"
b11100 p"
b11000 `"
b11000 k"
b11000 m"
b11000 s"
1%
#56000
b10100 ;
b10100 U
b10100 !"
b10100 _"
b10100 o"
#60000
0%
#65000
0Q
b0 ;"
b0 B"
b0 E"
b0 *"
b0 D"
b0 G"
b0 ,"
b0 K"
b0 ["
b0 -"
b0 L"
b0 \"
b100000 a"
b100000 q"
b100000 r"
b0 H"
b0 I"
b100000 <"
b0 X"
b0 W"
b0 +"
b0 J"
b0 ^"
b0 ]"
b1 J
b1 v
b1 {
b100000 d
b10 P
b10 [
b10 &"
b11 R
b11 b
b11 z
b10 @
b10 c
1B
b100000 b"
b100000 f"
b100000 j"
b100000 p"
b11100 `"
b11100 k"
b11100 m"
b11100 s"
b10000000000000000000000000000000 -
b10000000000000000000000000000000 1"
b10000000000000000000000000000000 e"
b10000000000000000000000000000000 h"
b11100 ,
b11100 0"
b11100 M"
b11100 d"
b11100 i"
b1 5
b1 M
b1 x
b1 9"
b1 O"
b10 4
b10 L
b10 w
b10 8"
b10 P"
b100000100000 /
b100000100000 E
b100000100000 W
b100000100000 ("
b100000100000 3"
b100000100000 U"
b10 0
b10 G
b10 |
b10 '"
b10 4"
b10 T"
b1 1
b1 H
b1 \
b1 5"
b1 S"
b100000111000 T
b100000111000 V
b100000111000 y
b11000 2
b11000 I
b11000 X
b11000 6"
b11000 R"
b1100 6
b1100 :"
b1100 N"
b10 .
b10 D
b10 }
b10 2"
b10 V"
b111 &
1%
#66000
b1 8
b1 N
b1 #"
b1 u"
b1 '#
b10 :
b10 F
b10 $"
b10 v"
b10 !#
b11 ?
b11 S
b11 ""
b11 t"
b11 ~"
b11 $#
07
b100000111000 ;
b100000111000 U
b100000111000 !"
b100000111000 _"
b100000111000 o"
b10 9
b10 C
b10 %"
b10 w"
b10 %#
#70000
0%
#75000
1Q
b11 )
b11 ."
b11 Y"
b11 x"
b11 -#
b0 J
b0 v
b0 {
b0 d
b0 P
b0 [
b0 &"
b0 R
b0 b
b0 z
b0 @
b0 c
0B
b100100 a"
b100100 q"
b100100 r"
b1000 &
b1 (
b1 )"
b1 Z"
b1 z"
b1 )#
b11 }"
b11 (#
b11 +#
1*
b0 5
b0 M
b0 x
b0 9"
b0 O"
b0 4
b0 L
b0 w
b0 8"
b0 P"
b0 /
b0 E
b0 W
b0 ("
b0 3"
b0 U"
b0 0
b0 G
b0 |
b0 '"
b0 4"
b0 T"
b0 1
b0 H
b0 \
b0 5"
b0 S"
b11100 T
b11100 V
b11100 y
b11100 2
b11100 I
b11100 X
b11100 6"
b11100 R"
b0 6
b0 :"
b0 N"
b0 .
b0 D
b0 }
b0 2"
b0 V"
b100000 ,
b100000 0"
b100000 M"
b100000 d"
b100000 i"
b100100 b"
b100100 f"
b100100 j"
b100100 p"
b100000 `"
b100000 k"
b100000 m"
b100000 s"
1%
#76000
b0 8
b0 N
b0 #"
b0 u"
b0 '#
b0 :
b0 F
b0 $"
b0 v"
b0 !#
b0 ?
b0 S
b0 ""
b0 t"
b0 ~"
b0 $#
17
b11100 ;
b11100 U
b11100 !"
b11100 _"
b11100 o"
b0 9
b0 C
b0 %"
b0 w"
b0 %#
#80000
0%
#85000
b1000110000100000100000 c"
b1000110000100000100000 g"
b1000110000100000100000 l"
b101000 a"
b101000 q"
b101000 r"
b0 )
b0 ."
b0 Y"
b0 x"
b0 -#
b101000 b"
b101000 f"
b101000 j"
b101000 p"
b100100 `"
b100100 k"
b100100 m"
b100100 s"
b100100 ,
b100100 0"
b100100 M"
b100100 d"
b100100 i"
b11 "
b100000 T
b100000 V
b100000 y
b100000 2
b100000 I
b100000 X
b100000 6"
b100000 R"
b0 (
b0 )"
b0 Z"
b0 z"
b0 )#
b0 }"
b0 (#
b0 +#
0*
b1001 &
1%
#86000
b100000 ;
b100000 U
b100000 !"
b100000 _"
b100000 o"
#90000
0%
#95000
b1100 ;"
b1100 B"
b1100 E"
b10 *"
b10 D"
b10 G"
b11 ,"
b11 K"
b11 ["
b11 -"
b11 L"
b11 \"
b1 H"
b11 I"
b0 <"
b11 X"
b1 W"
b100000100000 +"
b100000100000 J"
b100000100000 ^"
b100000100000 ]"
b10000000000000000000000000000000 c"
b10000000000000000000000000000000 g"
b10000000000000000000000000000000 l"
b101100 a"
b101100 q"
b101100 r"
b1010 &
b100100 T
b100100 V
b100100 y
b100100 2
b100100 I
b100100 X
b100100 6"
b100100 R"
b1000110000100000100000 -
b1000110000100000100000 1"
b1000110000100000100000 e"
b1000110000100000100000 h"
b101000 ,
b101000 0"
b101000 M"
b101000 d"
b101000 i"
b101100 b"
b101100 f"
b101100 j"
b101100 p"
b101000 `"
b101000 k"
b101000 m"
b101000 s"
1%
#96000
b100100 ;
b100100 U
b100100 !"
b100100 _"
b100100 o"
#100000
0%
#105000
0Q
b0 ;"
b0 B"
b0 E"
b0 *"
b0 D"
b0 G"
b0 ,"
b0 K"
b0 ["
b0 -"
b0 L"
b0 \"
b110000 a"
b110000 q"
b110000 r"
b0 H"
b0 I"
b100000 <"
b0 X"
b0 W"
b0 +"
b0 J"
b0 ^"
b0 ]"
b1 J
b1 v
b1 {
b100000 d
b11 P
b11 [
b11 &"
b110 R
b110 b
b110 z
b10 @
b10 c
1B
b110000 b"
b110000 f"
b110000 j"
b110000 p"
b101100 `"
b101100 k"
b101100 m"
b101100 s"
b10000000000000000000000000000000 -
b10000000000000000000000000000000 1"
b10000000000000000000000000000000 e"
b10000000000000000000000000000000 h"
b101100 ,
b101100 0"
b101100 M"
b101100 d"
b101100 i"
b1 5
b1 M
b1 x
b1 9"
b1 O"
b11 4
b11 L
b11 w
b11 8"
b11 P"
b100000100000 /
b100000100000 E
b100000100000 W
b100000100000 ("
b100000100000 3"
b100000100000 U"
b11 0
b11 G
b11 |
b11 '"
b11 4"
b11 T"
b11 1
b11 H
b11 \
b11 5"
b11 S"
b100001001000 T
b100001001000 V
b100001001000 y
b101000 2
b101000 I
b101000 X
b101000 6"
b101000 R"
b1100 6
b1100 :"
b1100 N"
b10 .
b10 D
b10 }
b10 2"
b10 V"
b1011 &
1%
#106000
b1 8
b1 N
b1 #"
b1 u"
b1 '#
b11 :
b11 F
b11 $"
b11 v"
b11 !#
b110 ?
b110 S
b110 ""
b110 t"
b110 ~"
b110 $#
07
b100001001000 ;
b100001001000 U
b100001001000 !"
b100001001000 _"
b100001001000 o"
b10 9
b10 C
b10 %"
b10 w"
b10 %#
#110000
0%
#115000
1Q
b110 )
b110 ."
b110 Y"
b110 x"
b110 -#
b0 J
b0 v
b0 {
b0 d
b0 P
b0 [
b0 &"
b0 R
b0 b
b0 z
b0 @
b0 c
0B
b110100 a"
b110100 q"
b110100 r"
b1100 &
b1 (
b1 )"
b1 Z"
b1 z"
b1 )#
b110 }"
b110 (#
b110 +#
1*
b0 5
b0 M
b0 x
b0 9"
b0 O"
b0 4
b0 L
b0 w
b0 8"
b0 P"
b0 /
b0 E
b0 W
b0 ("
b0 3"
b0 U"
b0 0
b0 G
b0 |
b0 '"
b0 4"
b0 T"
b0 1
b0 H
b0 \
b0 5"
b0 S"
b101100 T
b101100 V
b101100 y
b101100 2
b101100 I
b101100 X
b101100 6"
b101100 R"
b0 6
b0 :"
b0 N"
b0 .
b0 D
b0 }
b0 2"
b0 V"
b110000 ,
b110000 0"
b110000 M"
b110000 d"
b110000 i"
b110100 b"
b110100 f"
b110100 j"
b110100 p"
b110000 `"
b110000 k"
b110000 m"
b110000 s"
1%
#116000
b0 8
b0 N
b0 #"
b0 u"
b0 '#
b0 :
b0 F
b0 $"
b0 v"
b0 !#
b0 ?
b0 S
b0 ""
b0 t"
b0 ~"
b0 $#
17
b101100 ;
b101100 U
b101100 !"
b101100 _"
b101100 o"
b0 9
b0 C
b0 %"
b0 w"
b0 %#
#120000
0%
#125000
b1000010000100000100000 c"
b1000010000100000100000 g"
b1000010000100000100000 l"
b111000 a"
b111000 q"
b111000 r"
b0 )
b0 ."
b0 Y"
b0 x"
b0 -#
b111000 b"
b111000 f"
b111000 j"
b111000 p"
b110100 `"
b110100 k"
b110100 m"
b110100 s"
b110100 ,
b110100 0"
b110100 M"
b110100 d"
b110100 i"
b110 "
b110000 T
b110000 V
b110000 y
b110000 2
b110000 I
b110000 X
b110000 6"
b110000 R"
b0 (
b0 )"
b0 Z"
b0 z"
b0 )#
b0 }"
b0 (#
b0 +#
0*
b1101 &
1%
