mips_pipeline_tb.vcd
$date
	Sun May  3 16:00:43 2026
$end
$version
	Icarus Verilog
$end
$timescale
	1ps
$end
$scope module mips_pipeline_tb $end
$var wire 32 ! R0 [31:0] $end
$var wire 32 " R1 [31:0] $end
$var wire 32 # R2 [31:0] $end
$var wire 32 $ R3 [31:0] $end
$var wire 32 % R7 [31:0] $end
$var wire 32 & R8 [31:0] $end
$var reg 1 ' clk $end
$var integer 32 ( cycle [31:0] $end
$scope module uut $end
$var wire 1 ' clk $end
$var wire 1 ) rst $end
$var wire 5 * wb_write_reg [4:0] $end
$var wire 32 + wb_write_data [31:0] $end
$var wire 1 , wb_reg_write $end
$var wire 1 - stall_pc $end
$var wire 1 . stall_ifid $end
$var wire 1 / mem_pcsrc $end
$var wire 32 0 if_id_npc [31:0] $end
$var wire 32 1 if_id_instr [31:0] $end
$var wire 2 2 id_ex_wb [1:0] $end
$var wire 32 3 id_ex_sign_ext [31:0] $end
$var wire 32 4 id_ex_readdat2 [31:0] $end
$var wire 32 5 id_ex_readdat1 [31:0] $end
$var wire 32 6 id_ex_npc [31:0] $end
$var wire 3 7 id_ex_mem [2:0] $end
$var wire 5 8 id_ex_instr_2521 [4:0] $end
$var wire 5 9 id_ex_instr_2016 [4:0] $end
$var wire 5 : id_ex_instr_1511 [4:0] $end
$var wire 4 ; id_ex_execute [3:0] $end
$var wire 1 < ex_mem_zero $end
$var wire 5 = ex_mem_write_reg [4:0] $end
$var wire 2 > ex_mem_wb [1:0] $end
$var wire 32 ? ex_mem_rdata2 [31:0] $end
$var wire 32 @ ex_mem_npc [31:0] $end
$var wire 1 A ex_mem_memwrite $end
$var wire 1 B ex_mem_memread $end
$var wire 1 C ex_mem_branch $end
$var wire 32 D ex_mem_alu_result [31:0] $end
$scope module EX_stage $end
$var wire 2 E aluop [1:0] $end
$var wire 1 F alusrc $end
$var wire 1 ' clk $end
$var wire 1 G ex_mem_regwrite_in $end
$var wire 1 H regdst $end
$var wire 1 < zero $end
$var wire 2 I wb_ctlout [1:0] $end
$var wire 2 J wb_ctl [1:0] $end
$var wire 32 K s_extendout [31:0] $end
$var wire 32 L rdata2out [31:0] $end
$var wire 32 M rdata2 [31:0] $end
$var wire 32 N rdata1 [31:0] $end
$var wire 32 O npcout [31:0] $end
$var wire 5 P muxout [4:0] $end
$var wire 1 A memwrite $end
$var wire 1 B memread $end
$var wire 5 Q mem_wb_write_reg_in [4:0] $end
$var wire 32 R mem_wb_write_data [31:0] $end
$var wire 1 , mem_wb_regwrite_in $end
$var wire 3 S m_ctl [2:0] $end
$var wire 5 T instrout_2016 [4:0] $end
$var wire 5 U instrout_1511 [4:0] $end
$var wire 5 V id_ex_rs [4:0] $end
$var wire 32 W fwd_b_out [31:0] $end
$var wire 2 X forward_b [1:0] $end
$var wire 2 Y forward_a [1:0] $end
$var wire 5 Z five_bit_muxout [4:0] $end
$var wire 5 [ ex_mem_write_reg_in [4:0] $end
$var wire 3 \ control [2:0] $end
$var wire 1 C branch $end
$var wire 32 ] b [31:0] $end
$var wire 1 ^ aluzero $end
$var wire 32 _ aluout [31:0] $end
$var wire 32 ` alu_result [31:0] $end
$var wire 32 a alu_a_in [31:0] $end
$var wire 32 b adder_out [31:0] $end
$var wire 32 c EX_MEM_NPC [31:0] $end
$scope module adder3 $end
$var wire 32 d add_out [31:0] $end
$var wire 32 e add_in2 [31:0] $end
$var wire 32 f add_in1 [31:0] $end
$upscope $end
$scope module alu3 $end
$var wire 32 g a [31:0] $end
$var wire 1 h sign_mismatch $end
$var wire 1 ^ zero $end
$var wire 3 i control [2:0] $end
$var wire 32 j b [31:0] $end
$var parameter 3 k ALUadd $end
$var parameter 3 l ALUand $end
$var parameter 3 m ALUor $end
$var parameter 3 n ALUslt $end
$var parameter 3 o ALUsub $end
$var reg 32 p result [31:0] $end
$upscope $end
$scope module alu_control3 $end
$var wire 2 q aluop [1:0] $end
$var wire 6 r funct [5:0] $end
$var parameter 3 s ALUadd $end
$var parameter 3 t ALUand $end
$var parameter 3 u ALUor $end
$var parameter 3 v ALUslt $end
$var parameter 3 w ALUsub $end
$var parameter 3 x ALUx $end
$var parameter 6 y FUNCTadd $end
$var parameter 6 z FUNCTand $end
$var parameter 6 { FUNCTor $end
$var parameter 6 | FUNCTslt $end
$var parameter 6 } FUNCTsub $end
$var parameter 2 ~ Itype $end
$var parameter 2 !" Rtype $end
$var parameter 2 "" lwsw $end
$var parameter 2 #" unknown $end
$var parameter 6 $" xis $end
$var reg 3 %" select [2:0] $end
$upscope $end
$scope module bottom_mux3 $end
$var wire 1 H sel $end
$var wire 5 &" y [4:0] $end
$var wire 5 '" b [4:0] $end
$var wire 5 (" a [4:0] $end
$upscope $end
$scope module ex_mem3 $end
$var wire 32 )" adder_out [31:0] $end
$var wire 32 *" aluout [31:0] $end
$var wire 1 ^ aluzero $end
$var wire 1 ' clk $end
$var wire 5 +" muxout [4:0] $end
$var wire 32 ," readdat2 [31:0] $end
$var wire 2 -" ctlwb_out [1:0] $end
$var wire 3 ." ctlm_out [2:0] $end
$var reg 32 /" add_result [31:0] $end
$var reg 32 0" alu_result [31:0] $end
$var reg 1 C branch $end
$var reg 5 1" five_bit_muxout [4:0] $end
$var reg 1 B memread $end
$var reg 1 A memwrite $end
$var reg 32 2" rdata2out [31:0] $end
$var reg 2 3" wb_ctlout [1:0] $end
$var reg 1 < zero $end
$upscope $end
$scope module fu0 $end
$var wire 1 G ex_mem_regwrite $end
$var wire 5 4" ex_mem_write_reg [4:0] $end
$var wire 5 5" mem_wb_write_reg [4:0] $end
$var wire 1 , mem_wb_regwrite $end
$var wire 5 6" id_ex_rt [4:0] $end
$var wire 5 7" id_ex_rs [4:0] $end
$var reg 2 8" forward_a [1:0] $end
$var reg 2 9" forward_b [1:0] $end
$upscope $end
$scope module top_mux3 $end
$var wire 1 F alusrc $end
$var wire 32 :" b [31:0] $end
$var wire 32 ;" y [31:0] $end
$var wire 32 <" a [31:0] $end
$upscope $end
$upscope $end
$scope module ID_stage $end
$var wire 1 ' clk $end
$var wire 1 =" id_ex_memread $end
$var wire 1 ) rst $end
$var wire 5 >" wb_write_reg_location [4:0] $end
$var wire 2 ?" wb_to_latch [1:0] $end
$var wire 1 , wb_reg_write $end
$var wire 2 @" wb_internal [1:0] $end
$var wire 1 - stall_pc $end
$var wire 1 . stall_ifid $end
$var wire 32 A" sign_ext_internal [31:0] $end
$var wire 32 B" readdat2_internal [31:0] $end
$var wire 32 C" readdat1_internal [31:0] $end
$var wire 32 D" mem_wb_write_data [31:0] $end
$var wire 3 E" mem_to_latch [2:0] $end
$var wire 3 F" mem_internal [2:0] $end
$var wire 32 G" if_id_npc [31:0] $end
$var wire 32 H" if_id_instr [31:0] $end
$var wire 2 I" id_ex_wb [1:0] $end
$var wire 32 J" id_ex_sign_ext [31:0] $end
$var wire 5 K" id_ex_rt_for_haz [4:0] $end
$var wire 32 L" id_ex_readdat2 [31:0] $end
$var wire 32 M" id_ex_readdat1 [31:0] $end
$var wire 32 N" id_ex_npc [31:0] $end
$var wire 3 O" id_ex_mem [2:0] $end
$var wire 5 P" id_ex_instr_bits_25_21 [4:0] $end
$var wire 5 Q" id_ex_instr_bits_20_16 [4:0] $end
$var wire 5 R" id_ex_instr_bits_15_11 [4:0] $end
$var wire 4 S" id_ex_execute [3:0] $end
$var wire 4 T" ex_to_latch [3:0] $end
$var wire 4 U" ex_internal [3:0] $end
$var wire 1 V" bubble_signal $end
$scope module c0 $end
$var wire 1 ' clk $end
$var wire 6 W" opcode [5:0] $end
$var wire 1 ) rst $end
$var parameter 6 X" BEQ $end
$var parameter 6 Y" LW $end
$var parameter 6 Z" NOP $end
$var parameter 6 [" RTYPE $end
$var parameter 6 \" SW $end
$var reg 4 ]" ex [3:0] $end
$var reg 3 ^" mem [2:0] $end
$var reg 2 _" wb [1:0] $end
$upscope $end
$scope module hd0 $end
$var wire 1 V" bubble $end
$var wire 1 =" id_ex_memread $end
$var wire 5 `" if_id_rs [4:0] $end
$var wire 5 a" if_id_rt [4:0] $end
$var wire 1 b" stall $end
$var wire 1 . stall_ifid $end
$var wire 1 - stall_pc $end
$var wire 5 c" id_ex_rt [4:0] $end
$upscope $end
$scope module iEL0 $end
$var wire 1 ' clk $end
$var wire 4 d" ctl_ex [3:0] $end
$var wire 3 e" ctl_mem [2:0] $end
$var wire 2 f" ctl_wb [1:0] $end
$var wire 5 g" instr_bits_15_11 [4:0] $end
$var wire 5 h" instr_bits_20_16 [4:0] $end
$var wire 5 i" instr_bits_25_21 [4:0] $end
$var wire 1 ) rst $end
$var wire 32 j" sign_ext [31:0] $end
$var wire 32 k" readdat2 [31:0] $end
$var wire 32 l" readdat1 [31:0] $end
$var wire 32 m" npc [31:0] $end
$var reg 4 n" ctl_out [3:0] $end
$var reg 5 o" instr_bits_15_11_out [4:0] $end
$var reg 5 p" instr_bits_20_16_out [4:0] $end
$var reg 5 q" instr_bits_25_21_out [4:0] $end
$var reg 3 r" mem_out [2:0] $end
$var reg 32 s" npc_out [31:0] $end
$var reg 32 t" readdat1_out [31:0] $end
$var reg 32 u" readdat2_out [31:0] $end
$var reg 32 v" sign_ext_out [31:0] $end
$var reg 2 w" wb_out [1:0] $end
$upscope $end
$scope module rf0 $end
$var wire 1 ' clk $end
$var wire 5 x" rs [4:0] $end
$var wire 1 ) rst $end
$var wire 5 y" rt [4:0] $end
$var wire 32 z" writedata [31:0] $end
$var wire 1 , regwrite $end
$var wire 5 {" rd [4:0] $end
$var wire 32 |" B_readdat2 [31:0] $end
$var wire 32 }" A_readdat1 [31:0] $end
$upscope $end
$scope module sE0 $end
$var wire 16 ~" immediate [15:0] $end
$var wire 32 !# extended [31:0] $end
$upscope $end
$upscope $end
$scope module IF_stage $end
$var wire 1 ' clk $end
$var wire 32 "# ex_mem_npc [31:0] $end
$var wire 1 . ifid_write_en $end
$var wire 1 - pc_write_en $end
$var wire 1 ) rst $end
$var wire 32 ## pc_out [31:0] $end
$var wire 32 $# pc_mux [31:0] $end
$var wire 32 %# next_pc [31:0] $end
$var wire 32 &# instr_data [31:0] $end
$var wire 32 '# if_id_npc [31:0] $end
$var wire 32 (# if_id_instr [31:0] $end
$var wire 1 / ex_mem_pc_src $end
$scope module ifIdLatch0 $end
$var wire 1 ' clk $end
$var wire 1 ) rst $end
$var wire 1 . write_en $end
$var wire 32 )# npc_in [31:0] $end
$var wire 32 *# instr_in [31:0] $end
$var reg 32 +# instr_out [31:0] $end
$var reg 32 ,# npc_out [31:0] $end
$upscope $end
$scope module in0 $end
$var wire 32 -# pc_out [31:0] $end
$var wire 32 .# pc_in [31:0] $end
$upscope $end
$scope module inMem0 $end
$var wire 32 /# data [31:0] $end
$var wire 32 0# addr [31:0] $end
$var integer 32 1# i [31:0] $end
$upscope $end
$scope module m0 $end
$var wire 32 2# a_true [31:0] $end
$var wire 32 3# b_false [31:0] $end
$var wire 32 4# y [31:0] $end
$var wire 1 / sel $end
$upscope $end
$scope module pc0 $end
$var wire 1 ' clk $end
$var wire 32 5# pc_in [31:0] $end
$var wire 1 ) rst $end
$var wire 1 - write_en $end
$var reg 32 6# pc_out [31:0] $end
$upscope $end
$upscope $end
$scope module MEM_WB_stage $end
$var wire 32 7# alu_result [31:0] $end
$var wire 1 C branch $end
$var wire 1 ' clk $end
$var wire 5 8# five_bit_muxout [4:0] $end
$var wire 1 B memread $end
$var wire 1 A memwrite $end
$var wire 32 9# rdata2out [31:0] $end
$var wire 2 :# wb_ctlout [1:0] $end
$var wire 1 < zero $end
$var wire 32 ;# write_data_out [31:0] $end
$var wire 32 <# read_data_in [31:0] $end
$var wire 5 =# mem_write_reg [4:0] $end
$var wire 32 ># latched_read_data [31:0] $end
$var wire 1 ?# latched_memtoreg $end
$var wire 32 @# latched_alu [31:0] $end
$var wire 1 , MEM_WB_regwrite $end
$var wire 1 / MEM_PCSrc $end
$scope module AND_4 $end
$var wire 1 / PCSrc $end
$var wire 1 C membranch $end
$var wire 1 < zero $end
$upscope $end
$scope module data_memory4 $end
$var wire 32 A# addr [31:0] $end
$var wire 1 ' clk $end
$var wire 1 B memread $end
$var wire 1 A memwrite $end
$var wire 32 B# write_data [31:0] $end
$var reg 32 C# read_data [31:0] $end
$var integer 32 D# i [31:0] $end
$upscope $end
$scope module mem_wb4 $end
$var wire 32 E# alu_result_in [31:0] $end
$var wire 1 ' clk $end
$var wire 2 F# control_wb_in [1:0] $end
$var wire 32 G# read_data_in [31:0] $end
$var wire 5 H# write_reg_in [4:0] $end
$var reg 32 I# mem_alu_result [31:0] $end
$var reg 5 J# mem_write_reg [4:0] $end
$var reg 1 ?# memtoreg $end
$var reg 32 K# read_data [31:0] $end
$var reg 1 , regwrite $end
$upscope $end
$scope module wb_mux_i $end
$var wire 32 L# mem_alu_result [31:0] $end
$var wire 32 M# read_data [31:0] $end
$var wire 1 ?# sel $end
$var wire 32 N# writedata [31:0] $end
$upscope $end
$upscope $end
$upscope $end
$upscope $end
$enddefinitions $end
$comment Show the parameter values. $end
$dumpall
b101011 \"
b0 ["
b100000 Z"
b100011 Y"
b100 X"
bx $"
b11 #"
b0 ""
b10 !"
b1 ~
b100010 }
b101010 |
b100101 {
b100100 z
b100000 y
b11 x
b110 w
b111 v
b1 u
b0 t
b10 s
b110 o
b111 n
b1 m
b0 l
b10 k
$end
#0
$dumpvars
b0 N#
b0 M#
b0 L#
b0 K#
b0 J#
b0 I#
b0 H#
b0 G#
b0 F#
b0 E#
b110 D#
b0 C#
b0 B#
b0 A#
b0 @#
0?#
b0 >#
b0 =#
b0 <#
b0 ;#
b0 :#
b0 9#
b0 8#
b0 7#
b0 6#
b100 5#
b100 4#
b100 3#
b0 2#
b100000000 1#
b0 0#
b10001100000000010000000000000001 /#
b0 .#
b100 -#
b0 ,#
b10000000000000000000000000000000 +#
b10001100000000010000000000000001 *#
b100 )#
b10000000000000000000000000000000 (#
b0 '#
b10001100000000010000000000000001 &#
b100 %#
b100 $#
b0 ##
b0 "#
b0 !#
b0 ~"
b0 }"
b0 |"
b0 {"
b0 z"
b0 y"
b0 x"
bx w"
bx v"
bx u"
bx t"
bx s"
bx r"
bx q"
bx p"
bx o"
bx n"
b0 m"
b0 l"
b0 k"
b0 j"
b0 i"
b0 h"
b0 g"
b0 f"
b0 e"
b0 d"
bx c"
xb"
b0 a"
b0 `"
b0 _"
b0 ^"
b0 ]"
b100000 W"
xV"
b0 U"
b0 T"
bx S"
bx R"
bx Q"
bx P"
bx O"
bx N"
bx M"
bx L"
bx K"
bx J"
bx I"
b10000000000000000000000000000000 H"
b0 G"
b0 F"
b0 E"
b0 D"
b0 C"
b0 B"
b0 A"
b0 @"
b0 ?"
b0 >"
x="
bx <"
bx ;"
bx :"
b0 9"
b0 8"
bx 7"
bx 6"
b0 5"
b0 4"
b0 3"
b0 2"
b0 1"
b0 0"
b0 /"
bx ."
bx -"
bx ,"
bx +"
bx *"
bx )"
bx ("
bx '"
bx &"
b0 %"
bx r
bx q
bx p
bx j
b0 i
xh
bx g
bx f
bx e
bx d
b0 c
bx b
bx a
b0 `
bx _
x^
bx ]
b0 \
b0 [
b0 Z
b0 Y
b0 X
bx W
bx V
bx U
bx T
bx S
b0 R
b0 Q
bx P
bx O
bx N
bx M
b0 L
bx K
bx J
b0 I
xH
0G
xF
bx E
b0 D
0C
0B
0A
b0 @
b0 ?
b0 >
b0 =
0<
bx ;
bx :
bx 9
bx 8
bx 7
bx 6
bx 5
bx 4
bx 3
bx 2
b10000000000000000000000000000000 1
b0 0
0/
x.
x-
0,
b0 +
b0 *
0)
b0 (
0'
b10101100011001010100001100100001 &
b10011000000010010001101000101 %
b10001100000100100011010001010110 $
b100000000000000100010 #
b10000011001010100001100100001 "
b1000110000000010101010 !
$end
#5000
b10 \
b10 i
b10 %"
0h
1^
1-
1.
b0 ]
b0 j
b0 ;"
b0 _
b0 p
b0 *"
0V"
0b"
b0 W
b0 :"
b0 a
b0 g
b0 P
b0 &"
b0 +"
b0 r
b0 E
b0 q
0F
0H
0="
x/
xG
b0 8
b0 V
b0 7"
b0 P"
b0 q"
b0 :
b0 U
b0 ("
b0 R"
b0 o"
b0 9
b0 T
b0 '"
b0 6"
b0 K"
b0 Q"
b0 c"
b0 p"
b0 b
b0 d
b0 )"
b0 3
b0 K
b0 e
b0 <"
b0 J"
b0 v"
b0 4
b0 M
b0 ,"
b0 L"
b0 u"
b0 5
b0 N
b0 M"
b0 t"
b0 6
b0 O
b0 f
b0 N"
b0 s"
b0 ;
b0 S"
b0 n"
b0 7
b0 S
b0 ."
b0 O"
b0 r"
b0 2
b0 J
b0 -"
b0 I"
b0 w"
bx =
bx Z
bx [
bx 1"
bx 4"
bx 8#
bx H#
bx ?
bx L
bx 2"
bx 9#
bx B#
bx D
bx `
bx 0"
bx 7#
bx A#
bx E#
x<
bx @
bx c
bx /"
bx "#
bx 2#
xA
xB
xC
bx >
bx I
bx 3"
bx :#
bx F#
b1 (
1'
#10000
0'
#15000
b1 T"
b1 d"
b10 E"
b10 e"
b11 ?"
b11 f"
b1 U"
b1 ]"
b10 F"
b10 ^"
b11 @"
b11 _"
bx B"
bx k"
bx |"
bx +
bx R
bx D"
bx z"
bx ;#
bx N#
0/
0G
b1 h"
b100011 W"
b1 y"
b1 A"
b1 j"
b1 !#
b1 ~"
b1 a"
b10001100000000100000000000000010 &#
b10001100000000100000000000000010 *#
b10001100000000100000000000000010 /#
b1000 $#
b1000 4#
b1000 5#
b10 (
bx *
bx Q
bx 5"
bx >"
bx {"
bx =#
bx J#
bx @#
bx I#
bx L#
x?#
x,
b0 =
b0 Z
b0 [
b0 1"
b0 4"
b0 8#
b0 H#
b0 ?
b0 L
b0 2"
b0 9#
b0 B#
b0 D
b0 `
b0 0"
b0 7#
b0 A#
b0 E#
1<
b0 @
b0 c
b0 /"
b0 "#
b0 2#
0A
0B
0C
b0 >
b0 I
b0 3"
b0 :#
b0 F#
b100 0
b100 G"
b100 m"
b100 '#
b100 ,#
b10001100000000010000000000000001 1
b10001100000000010000000000000001 H"
b10001100000000010000000000000001 (#
b10001100000000010000000000000001 +#
b1000 %#
b1000 )#
b1000 -#
b1000 3#
b100 ##
b100 .#
b100 0#
b100 6#
1'
#20000
0'
#25000
0^
1-
1.
b1 T"
b1 d"
b10 E"
b10 e"
b11 ?"
b11 f"
b1 _
b1 p
b1 *"
b100000000000000100010 B"
b100000000000000100010 k"
b100000000000000100010 |"
0V"
0b"
bx W
bx :"
b1 ]
b1 j
b1 ;"
b10001100000000110000000000000011 &#
b10001100000000110000000000000011 *#
b10001100000000110000000000000011 /#
b1100 $#
b1100 4#
b1100 5#
b10 h"
b10 y"
b10 A"
b10 j"
b10 !#
b10 ~"
b10 a"
b1 P
b1 &"
b1 +"
b1 r
1F
1="
b0 +
b0 R
b0 D"
b0 z"
b0 ;#
b0 N#
b1100 %#
b1100 )#
b1100 -#
b1100 3#
b1000 ##
b1000 .#
b1000 0#
b1000 6#
b1000 0
b1000 G"
b1000 m"
b1000 '#
b1000 ,#
b10001100000000100000000000000010 1
b10001100000000100000000000000010 H"
b10001100000000100000000000000010 (#
b10001100000000100000000000000010 +#
b1 9
b1 T
b1 '"
b1 6"
b1 K"
b1 Q"
b1 c"
b1 p"
b1 3
b1 K
b1 e
b1 <"
b1 J"
b1 v"
bx 4
bx M
bx ,"
bx L"
bx u"
b101 b
b101 d
b101 )"
b100 6
b100 O
b100 f
b100 N"
b100 s"
b1 ;
b1 S"
b1 n"
b10 7
b10 S
b10 ."
b10 O"
b10 r"
b11 2
b11 J
b11 -"
b11 I"
b11 w"
b0 *
b0 Q
b0 5"
b0 >"
b0 {"
b0 =#
b0 J#
b0 @#
b0 I#
b0 L#
0?#
0,
b11 (
1'
#30000
0'
#35000
b10001100000100100011010001010110 B"
b10001100000100100011010001010110 k"
b10001100000100100011010001010110 |"
b10 _
b10 p
b10 *"
b100000000000000100010 W
b100000000000000100010 :"
b1 <#
b1 C#
b1 G#
1G
b10 P
b10 &"
b10 +"
b10 ]
b10 j
b10 ;"
b10 r
b11 h"
b11 y"
b11 A"
b11 j"
b11 !#
b11 ~"
b11 a"
b10000000000000000000000000000000 &#
b10000000000000000000000000000000 *#
b10000000000000000000000000000000 /#
b10000 $#
b10000 4#
b10000 5#
b100 (
b1 =
b1 Z
b1 [
b1 1"
b1 4"
b1 8#
b1 H#
bx ?
bx L
bx 2"
bx 9#
bx B#
b1 D
b1 `
b1 0"
b1 7#
b1 A#
b1 E#
0<
b101 @
b101 c
b101 /"
b101 "#
b101 2#
1B
b11 >
b11 I
b11 3"
b11 :#
b11 F#
b10 9
b10 T
b10 '"
b10 6"
b10 K"
b10 Q"
b10 c"
b10 p"
b10 3
b10 K
b10 e
b10 <"
b10 J"
b10 v"
b100000000000000100010 4
b100000000000000100010 M
b100000000000000100010 ,"
b100000000000000100010 L"
b100000000000000100010 u"
b1010 b
b1010 d
b1010 )"
b1000 6
b1000 O
b1000 f
b1000 N"
b1000 s"
b1100 0
b1100 G"
b1100 m"
b1100 '#
b1100 ,#
b10001100000000110000000000000011 1
b10001100000000110000000000000011 H"
b10001100000000110000000000000011 (#
b10001100000000110000000000000011 +#
b10000 %#
b10000 )#
b10000 -#
b10000 3#
b1100 ##
b1100 .#
b1100 0#
b1100 6#
1'
#40000
0'
#45000
1-
1.
b0 T"
b0 d"
b0 E"
b0 e"
b0 ?"
b0 f"
b0 U"
b0 ]"
b0 F"
b0 ^"
b0 @"
b0 _"
b0 B"
b0 k"
b0 |"
0V"
0b"
b11 _
b11 p
b11 *"
b10001100000100100011010001010110 W
b10001100000100100011010001010110 :"
b1000100000100000100000 &#
b1000100000100000100000 *#
b1000100000100000100000 /#
b10100 $#
b10100 4#
b10100 5#
b0 h"
b100000 W"
b0 y"
b0 A"
b0 j"
b0 !#
b0 ~"
b0 a"
b11 P
b11 &"
b11 +"
b11 ]
b11 j
b11 ;"
b11 r
b10 <#
b10 C#
b10 G#
b1 +
b1 R
b1 D"
b1 z"
b1 ;#
b1 N#
b10100 %#
b10100 )#
b10100 -#
b10100 3#
b10000 ##
b10000 .#
b10000 0#
b10000 6#
b10000 0
b10000 G"
b10000 m"
b10000 '#
b10000 ,#
b10000000000000000000000000000000 1
b10000000000000000000000000000000 H"
b10000000000000000000000000000000 (#
b10000000000000000000000000000000 +#
b11 9
b11 T
b11 '"
b11 6"
b11 K"
b11 Q"
b11 c"
b11 p"
b11 3
b11 K
b11 e
b11 <"
b11 J"
b11 v"
b10001100000100100011010001010110 4
b10001100000100100011010001010110 M
b10001100000100100011010001010110 ,"
b10001100000100100011010001010110 L"
b10001100000100100011010001010110 u"
b1111 b
b1111 d
b1111 )"
b1100 6
b1100 O
b1100 f
b1100 N"
b1100 s"
b10 =
b10 Z
b10 [
b10 1"
b10 4"
b10 8#
b10 H#
b100000000000000100010 ?
b100000000000000100010 L
b100000000000000100010 2"
b100000000000000100010 9#
b100000000000000100010 B#
b10 D
b10 `
b10 0"
b10 7#
b10 A#
b10 E#
b1010 @
b1010 c
b1010 /"
b1010 "#
b1010 2#
b1 *
b1 Q
b1 5"
b1 >"
b1 {"
b1 =#
b1 J#
b1 @#
b1 I#
b1 L#
b1 >#
b1 K#
b1 M#
1?#
1,
b101 (
1'
#50000
0'
#55000
1^
0h
b1100 T"
b1100 d"
b10 ?"
b10 f"
b0 _
b0 p
b0 *"
b0 W
b0 :"
b1100 U"
b1100 ]"
b10 @"
b10 _"
b10 B"
b10 k"
b10 |"
b1 C"
b1 l"
b1 }"
b10 +
b10 R
b10 D"
b10 z"
b10 ;#
b10 N#
b11 <#
b11 C#
b11 G#
b0 P
b0 &"
b0 +"
b0 ]
b0 j
b0 ;"
b0 r
0F
0="
b1 i"
b1 g"
b10 h"
b0 W"
b10 y"
b1 x"
b100000100000 A"
b100000100000 j"
b100000100000 !#
b100000100000 ~"
b10 a"
b1 `"
b1000110000100000100000 &#
b1000110000100000100000 *#
b1000110000100000100000 /#
b11000 $#
b11000 4#
b11000 5#
b110 (
b10 *
b10 Q
b10 5"
b10 >"
b10 {"
b10 =#
b10 J#
b10 @#
b10 I#
b10 L#
b10 >#
b10 K#
b10 M#
b11 =
b11 Z
b11 [
b11 1"
b11 4"
b11 8#
b11 H#
b10001100000100100011010001010110 ?
b10001100000100100011010001010110 L
b10001100000100100011010001010110 2"
b10001100000100100011010001010110 9#
b10001100000100100011010001010110 B#
b11 D
b11 `
b11 0"
b11 7#
b11 A#
b11 E#
b1111 @
b1111 c
b1111 /"
b1111 "#
b1111 2#
b0 9
b0 T
b0 '"
b0 6"
b0 K"
b0 Q"
b0 c"
b0 p"
b0 3
b0 K
b0 e
b0 <"
b0 J"
b0 v"
b0 4
b0 M
b0 ,"
b0 L"
b0 u"
b10000 b
b10000 d
b10000 )"
b10000 6
b10000 O
b10000 f
b10000 N"
b10000 s"
b0 ;
b0 S"
b0 n"
b0 7
b0 S
b0 ."
b0 O"
b0 r"
b0 2
b0 J
b0 -"
b0 I"
b0 w"
b1 "
b10100 0
b10100 G"
b10100 m"
b10100 '#
b10100 ,#
b1000100000100000100000 1
b1000100000100000100000 H"
b1000100000100000100000 (#
b1000100000100000100000 +#
b11000 %#
b11000 )#
b11000 -#
b11000 3#
b10100 ##
b10100 .#
b10100 0#
b10100 6#
1'
#60000
0'
#65000
0^
b10 ]
b10 j
b10 ;"
b11 _
b11 p
b11 *"
b11 B"
b11 k"
b11 |"
b10 W
b10 :"
b1 a
b1 g
b1000010000100000100000 &#
b1000010000100000100000 *#
b1000010000100000100000 /#
b11100 $#
b11100 4#
b11100 5#
b11 h"
b11 y"
b11 a"
b1 P
b1 &"
b1 +"
b100000 r
b10 E
b10 q
1H
b0 <#
b0 C#
b0 G#
0G
b11 +
b11 R
b11 D"
b11 z"
b11 ;#
b11 N#
b11100 %#
b11100 )#
b11100 -#
b11100 3#
b11000 ##
b11000 .#
b11000 0#
b11000 6#
b11000 0
b11000 G"
b11000 m"
b11000 '#
b11000 ,#
b1000110000100000100000 1
b1000110000100000100000 H"
b1000110000100000100000 (#
b1000110000100000100000 +#
b10 #
b1 8
b1 V
b1 7"
b1 P"
b1 q"
b1 :
b1 U
b1 ("
b1 R"
b1 o"
b10 9
b10 T
b10 '"
b10 6"
b10 K"
b10 Q"
b10 c"
b10 p"
b100000100000 3
b100000100000 K
b100000100000 e
b100000100000 <"
b100000100000 J"
b100000100000 v"
b10 4
b10 M
b10 ,"
b10 L"
b10 u"
b1 5
b1 N
b1 M"
b1 t"
b100000110100 b
b100000110100 d
b100000110100 )"
b10100 6
b10100 O
b10100 f
b10100 N"
b10100 s"
b1100 ;
b1100 S"
b1100 n"
b10 2
b10 J
b10 -"
b10 I"
b10 w"
b0 =
b0 Z
b0 [
b0 1"
b0 4"
b0 8#
b0 H#
b0 ?
b0 L
b0 2"
b0 9#
b0 B#
b0 D
b0 `
b0 0"
b0 7#
b0 A#
b0 E#
1<
b10000 @
b10000 c
b10000 /"
b10000 "#
b10000 2#
0B
b0 >
b0 I
b0 3"
b0 :#
b0 F#
b11 *
b11 Q
b11 5"
b11 >"
b11 {"
b11 =#
b11 J#
b11 @#
b11 I#
b11 L#
b11 >#
b11 K#
b11 M#
b111 (
1'
#70000
0'
#75000
b110 _
b110 p
b110 *"
b1 B"
b1 k"
b1 |"
b11 a
b11 g
b11 ]
b11 j
b11 ;"
b10 Y
b10 8"
b11 W
b11 :"
b0 +
b0 R
b0 D"
b0 z"
b0 ;#
b0 N#
1G
b1 h"
b1 y"
b1 a"
b1000000000100000100000 &#
b1000000000100000100000 *#
b1000000000100000100000 /#
b100000 $#
b100000 4#
b100000 5#
b1000 (
b0 *
b0 Q
b0 5"
b0 >"
b0 {"
b0 =#
b0 J#
b0 @#
b0 I#
b0 L#
b0 >#
b0 K#
b0 M#
0?#
0,
b1 =
b1 Z
b1 [
b1 1"
b1 4"
b1 8#
b1 H#
b10 ?
b10 L
b10 2"
b10 9#
b10 B#
b11 D
b11 `
b11 0"
b11 7#
b11 A#
b11 E#
0<
b100000110100 @
b100000110100 c
b100000110100 /"
b100000110100 "#
b100000110100 2#
b10 >
b10 I
b10 3"
b10 :#
b10 F#
b11 9
b11 T
b11 '"
b11 6"
b11 K"
b11 Q"
b11 c"
b11 p"
b11 4
b11 M
b11 ,"
b11 L"
b11 u"
b100000111000 b
b100000111000 d
b100000111000 )"
b11000 6
b11000 O
b11000 f
b11000 N"
b11000 s"
b11 $
b11100 0
b11100 G"
b11100 m"
b11100 '#
b11100 ,#
b1000010000100000100000 1
b1000010000100000100000 H"
b1000010000100000100000 (#
b1000010000100000100000 +#
b100000 %#
b100000 )#
b100000 -#
b100000 3#
b11100 ##
b11100 .#
b11100 0#
b11100 6#
1'
#80000
0'
